<?xml version="1.0" encoding="UTF-8" standalone="no"?>
<svg xmlns:xlink="http://www.w3.org/1999/xlink" height="17.75px" width="23.05px" xmlns="http://www.w3.org/2000/svg">
  <g transform="matrix(1.0, 0.0, 0.0, 1.0, 12.05, 12.0)">
    <use height="11.15" transform="matrix(1.0, 0.0, 0.0, 1.0, -12.05, -5.6)" width="16.55" xlink:href="#shape0"/>
  </g>
  <defs>
    <g id="shape0" transform="matrix(1.0, 0.0, 0.0, 1.0, 12.05, 5.6)">
      <path d="M-9.35 -5.55 L-0.45 -4.7 Q1.65 -4.7 3.15 -2.6 4.5 -0.8 4.5 1.05 4.5 2.35 3.3 3.7 1.6 5.55 -1.55 5.55 -8.0 5.55 -10.65 0.7 -12.0 -1.75 -12.05 -4.3 -12.05 -5.9 -9.35 -5.55" fill="#ffffff" fill-rule="evenodd" stroke="none"/>
    </g>
  </defs>
</svg>
