<?xml version="1.0" encoding="UTF-8" standalone="no"?>
<svg xmlns:xlink="http://www.w3.org/1999/xlink" height="3.0px" width="2.0px" xmlns="http://www.w3.org/2000/svg">
  <g transform="matrix(1.0, 0.0, 0.0, 1.0, 1.0, -2.5)">
    <path d="M1.0 5.5 L-1.0 5.5 -1.0 2.5 0.0 2.5 0.0 4.5 1.0 4.5 1.0 5.5" fill="#000000" fill-rule="evenodd" stroke="none"/>
  </g>
</svg>
