<?xml version="1.0" encoding="UTF-8" standalone="no"?>
<svg xmlns:xlink="http://www.w3.org/1999/xlink" height="38.65px" width="30.2px" xmlns="http://www.w3.org/2000/svg">
  <g transform="matrix(1.0, 0.0, 0.0, 1.0, 15.25, 19.35)">
    <use height="38.65" id="_p1" transform="matrix(1.0, 0.0, 0.0, 1.0, -15.0, -19.35)" width="29.95" xlink:href="#sprite0"/>
  </g>
  <defs/>
</svg>
