<?xml version="1.0" encoding="UTF-8" standalone="no"?>
<svg xmlns:xlink="http://www.w3.org/1999/xlink" height="10.3px" width="8.45px" xmlns="http://www.w3.org/2000/svg">
  <g transform="matrix(1.0, 0.0, 0.0, 1.0, -1.95, -7.95)">
    <path d="M10.35 18.25 L5.7 13.25 Q2.65 9.85 1.95 7.95 3.2 7.75 4.45 9.4 L6.45 12.4 8.9 15.35 Q10.05 16.9 10.4 18.2 L10.35 18.25" fill="#ffffff" fill-rule="evenodd" stroke="none"/>
  </g>
</svg>
