<?xml version="1.0" encoding="UTF-8" standalone="no"?>
<svg xmlns:xlink="http://www.w3.org/1999/xlink" height="26.45px" width="23.2px" xmlns="http://www.w3.org/2000/svg">
  <g transform="matrix(1.0, 0.0, 0.0, 1.0, 11.4, 15.1)">
    <use height="26.45" id="_p1" transform="matrix(1.0, 0.0, 0.0, 1.0, -11.4, -15.1)" width="23.2" xlink:href="#sprite0"/>
  </g>
  <defs/>
</svg>
