<?xml version="1.0" encoding="UTF-8" standalone="no"?>
<svg xmlns:xlink="http://www.w3.org/1999/xlink" height="29.1px" width="28.25px" xmlns="http://www.w3.org/2000/svg">
  <g transform="matrix(1.0, 0.0, 0.0, 1.0, 12.15, 18.5)">
    <path d="M2.65 -16.65 L5.45 -18.5 4.6 -7.25 5.5 -6.3 9.9 -8.55 9.85 -8.25 9.85 -8.2 10.0 -8.15 12.35 -8.3 7.25 -2.9 16.1 5.7 15.9 6.4 4.3 5.7 -3.9 7.4 -12.15 10.6 2.65 -16.65" fill="#ffffff" fill-rule="evenodd" stroke="none"/>
  </g>
</svg>
