<?xml version="1.0" encoding="UTF-8" standalone="no"?>
<svg xmlns:xlink="http://www.w3.org/1999/xlink" height="6.2px" width="4.95px" xmlns="http://www.w3.org/2000/svg">
  <g transform="matrix(1.0, 0.0, 0.0, 1.0, -0.25, 17.45)">
    <path d="M1.35 -11.6 L0.95 -11.55 2.15 -13.1 1.7 -11.25 1.6 -11.3 1.35 -11.6 M4.65 -13.65 L5.05 -13.5 5.2 -13.25 5.05 -12.95 4.65 -12.85 4.25 -12.95 4.1 -13.25 4.25 -13.5 4.65 -13.65 M1.55 -17.45 L1.75 -15.95 1.65 -15.1 0.85 -15.1 0.7 -16.2 0.3 -16.8 0.25 -16.95 Q0.35 -17.3 0.65 -16.75 L1.55 -17.45" fill="#ffff00" fill-rule="evenodd" stroke="none"/>
  </g>
</svg>
