<?xml version="1.0" encoding="UTF-8" standalone="no"?>
<svg xmlns:xlink="http://www.w3.org/1999/xlink" height="12.35px" width="14.0px" xmlns="http://www.w3.org/2000/svg">
  <g transform="matrix(1.0, 0.0, 0.0, 1.0, 6.85, 5.7)">
    <path d="M1.65 1.15 L-3.85 6.65 -6.85 3.65 -1.35 -1.85 1.65 1.15" fill="#000000" fill-rule="evenodd" stroke="none"/>
    <path d="M-1.35 -1.85 L2.5 -5.7 7.15 -4.35 1.65 1.15 -1.35 -1.85" fill="#e0e8eb" fill-rule="evenodd" stroke="none"/>
  </g>
</svg>
